Manipulación de datos II – Tidyverse
…
Manejar pipes para unir cadena de operaciones en un data.frame.

Filtrar y manipular datos faltantes (NA).

Seleccionar columnas con where()

La función where() es auxiliar para seleccionar columnas en un tibble o data.frame. Anteriormente vimos como podíamos seleccionar columnas especificas basados en caracteres (starts_with(), cointains(), ends_with()). En este caso, where() nos permite seleccionar columnas que sean de un tipo especifico (numérico, carácter, factor, etc).

Para los siguientes ejercicios, utilizaremos la base de starwars

library(tidyverse)

starwars

# A tibble: 87 × 14
   name     height  mass hair_color skin_color eye_color birth_year sex   gender
   <chr>     <int> <dbl> <chr>      <chr>      <chr>          <dbl> <chr> <chr> 
 1 Luke Sk…    172    77 blond      fair       blue            19   male  mascu…
 2 C-3PO       167    75 <NA>       gold       yellow         112   none  mascu…
 3 R2-D2        96    32 <NA>       white, bl… red             33   none  mascu…
 4 Darth V…    202   136 none       white      yellow          41.9 male  mascu…
 5 Leia Or…    150    49 brown      light      brown           19   fema… femin…
 6 Owen La…    178   120 brown, gr… light      blue            52   male  mascu…
 7 Beru Wh…    165    75 brown      light      blue            47   fema… femin…
 8 R5-D4        97    32 <NA>       white, red red             NA   none  mascu…
 9 Biggs D…    183    84 black      light      brown           24   male  mascu…
10 Obi-Wan…    182    77 auburn, w… fair       blue-gray       57   male  mascu…
# ℹ 77 more rows
# ℹ 5 more variables: homeworld <chr>, species <chr>, films <list>,
#   vehicles <list>, starships <list>

Por ejemplo, si queremos seleccionar solamente las columnas que tengan valores de tipo numerico.

# Esto seleccionará todas las coluomnas con variables de tipo numerico
starwars %>% 
  select(where(is.numeric))

# A tibble: 87 × 3
   height  mass birth_year
    <int> <dbl>      <dbl>
 1    172    77       19  
 2    167    75      112  
 3     96    32       33  
 4    202   136       41.9
 5    150    49       19  
 6    178   120       52  
 7    165    75       47  
 8     97    32       NA  
 9    183    84       24  
10    182    77       57  
# ℹ 77 more rows
Warning

Recuerda que las funciones is.numeric(), is.character() y is.factor() se utiliza para “preguntar” si un objeto es de un tipo especifico donde nos dará un resultado booleano TRUE o FALSE.

objeto_caracter = "Esto es un caracter"
is.character(objeto_caracter)

[1] TRUE

Ademas de que podemos incluir manualmente columnas adicionales

starwars %>% 
  select(name, where(is.numeric))

# A tibble: 87 × 4
   name               height  mass birth_year
   <chr>               <int> <dbl>      <dbl>
 1 Luke Skywalker        172    77       19  
 2 C-3PO                 167    75      112  
 3 R2-D2                  96    32       33  
 4 Darth Vader           202   136       41.9
 5 Leia Organa           150    49       19  
 6 Owen Lars             178   120       52  
 7 Beru Whitesun lars    165    75       47  
 8 R5-D4                  97    32       NA  
 9 Biggs Darklighter     183    84       24  
10 Obi-Wan Kenobi        182    77       57  
# ℹ 77 more rows

y podemos seleccionar las columnas que sean de tipo caracter

starwars %>% 
  select(name, where(is.character))

# A tibble: 87 × 8
   name           hair_color skin_color eye_color sex   gender homeworld species
   <chr>          <chr>      <chr>      <chr>     <chr> <chr>  <chr>     <chr>  
 1 Luke Skywalker blond      fair       blue      male  mascu… Tatooine  Human  
 2 C-3PO          <NA>       gold       yellow    none  mascu… Tatooine  Droid  
 3 R2-D2          <NA>       white, bl… red       none  mascu… Naboo     Droid  
 4 Darth Vader    none       white      yellow    male  mascu… Tatooine  Human  
 5 Leia Organa    brown      light      brown     fema… femin… Alderaan  Human  
 6 Owen Lars      brown, gr… light      blue      male  mascu… Tatooine  Human  
 7 Beru Whitesun… brown      light      blue      fema… femin… Tatooine  Human  
 8 R5-D4          <NA>       white, red red       none  mascu… Tatooine  Droid  
 9 Biggs Darklig… black      light      brown     male  mascu… Tatooine  Human  
10 Obi-Wan Kenobi auburn, w… fair       blue-gray male  mascu… Stewjon   Human  
# ℹ 77 more rows
…
“Bajo” si mide menos de 150 cm

“Mediano” si están entre 150 y 180 cm

“Alto” si mide mas de 180 cm

starwars %>% 
  select(name, height) %>% 
  mutate(altura_categoria = case_when(
    height < 150 ~ "Bajo",
    between(height, 150, 180) ~ "Mediano",
    height > 180 ~ "Alto"
  ))

# A tibble: 87 × 3
   name               height altura_categoria
   <chr>               <int> <chr>           
 1 Luke Skywalker        172 Mediano         
 2 C-3PO                 167 Mediano         
 3 R2-D2                  96 Bajo            
 4 Darth Vader           202 Alto            
 5 Leia Organa           150 Mediano         
 6 Owen Lars             178 Mediano         
 7 Beru Whitesun lars    165 Mediano         
 8 R5-D4                  97 Bajo            
 9 Biggs Darklighter     183 Alto            
10 Obi-Wan Kenobi        182 Alto            
# ℹ 77 more rows
…
“Humanoide” para “Human” y “Droid”.

“Alienígena” para otras especies.

“Desconocido” si la especie no está registrada.

starwars %>% 
  select(name, species) %>% 
  mutate(specie_categorias = case_when(
    species %in% c("Human", " Droid") ~ "Humanoide",
    !is.na(species) ~ "Alienigena",
      TRUE ~ "Desconocido"
  ))

# A tibble: 87 × 3
   name               species specie_categorias
   <chr>              <chr>   <chr>            
 1 Luke Skywalker     Human   Humanoide        
 2 C-3PO              Droid   Alienigena       
 3 R2-D2              Droid   Alienigena       
 4 Darth Vader        Human   Humanoide        
 5 Leia Organa        Human   Humanoide        
 6 Owen Lars          Human   Humanoide        
 7 Beru Whitesun lars Human   Humanoide        
 8 R5-D4              Droid   Alienigena       
 9 Biggs Darklighter  Human   Humanoide        
10 Obi-Wan Kenobi     Human   Humanoide        
# ℹ 77 more rows
