Tidyverse - Importar y limpiar archivos
…
Observa como, aún antes de desplegar la tabla,read_table ya nos arroja información sobre la estructura de los datos y nos indica si cada columna es número, carácter u otro.

Ahora observa como se despliega la tabla

df

# A tibble: 344 × 8
   species island    bill_length_mm bill_depth_mm flipper_length_mm body_mass_g
   <chr>   <chr>              <dbl>         <dbl>             <dbl>       <dbl>
 1 Adelie  Torgersen           39.1          18.7               181        3750
 2 Adelie  Torgersen           39.5          17.4               186        3800
 3 Adelie  Torgersen           40.3          18                 195        3250
 4 Adelie  Torgersen           NA            NA                  NA          NA
 5 Adelie  Torgersen           36.7          19.3               193        3450
 6 Adelie  Torgersen           39.3          20.6               190        3650
 7 Adelie  Torgersen           38.9          17.8               181        3625
 8 Adelie  Torgersen           39.2          19.6               195        4675
 9 Adelie  Torgersen           34.1          18.1               193        3475
10 Adelie  Torgersen           42            20.2               190        4250
# ℹ 334 more rows
# ℹ 2 more variables: sex <chr>, year <dbl>
…
El tipo de entrada permanece inalterado: los data.frames son conocidos por tratar las cadenas de texto como factores; esto no sucederá con los tibbles.

Los nombres de las variables permanecen inalterados: En R base, al crear data.frames se eliminan los espacios de los nombres, convirtiéndolos en puntos o agregando una “x” antes de los nombres de las columnas numéricas. Al crear tibbles, los nombres de las variables (columnas) no cambian.

No hay row.names() para un tibble: Los datos ordenados requieren que las variables se almacenen de manera consistente, eliminando la necesidad de nombres de filas. Los tibbles imprimen las primeras diez filas y columnas que caben en una pantalla: Imprimir un tibble en la pantalla nunca mostrará todo el enorme marco de datos. Por defecto, solo muestra lo que cabe en tu pantalla.

convertir data.frame a tibble

Si tenemos datos rectangulares como data.frame podemos convertirlo facilmente a tibble con la función as_tibble()

Por ejemplo, podemos:

as_tibble(trees)

# A tibble: 31 × 3
   Girth Height Volume
   <dbl>  <dbl>  <dbl>
 1   8.3     70   10.3
 2   8.6     65   10.3
 3   8.8     63   10.2
 4  10.5     72   16.4
 5  10.7     81   18.8
 6  10.8     83   19.7
 7  11       66   15.6
 8  11       75   18.2
 9  11.1     80   22.6
10  11.2     75   19.9
# ℹ 21 more rows
…
install.packages("readxl")

library(readxl)

Warning: package 'readxl' was built under R version 4.3.1

Con esto podemos usar la función read_excel() que no necesita ningún otro argumento mas que la ruta (path) donde se encuentra el archivo .xlsx

excel_df <- read_excel("data/actividad_enzimas.xlsx")

excel_df

# A tibble: 405 × 18
   `Sample ID` ExpNum TreatTemp Meas_Temp `WetWeight(g)` `buffer(ml)`
   <chr>        <dbl>     <dbl>     <dbl>          <dbl>        <dbl>
 1 Hf100U           3        24        18          0.093         0.93
 2 Hf100U           3        24        18          0.093         0.93
 3 Hf100U           3        24        32          0.093         0.93
 4 Hf100U           3        24        32          0.093         0.93
 5 Hf101U           3        30        18          0.114         1.14
 6 Hf101U           3        30        18          0.114         1.14
 7 Hf101U           3        30        32          0.114         1.14
 8 Hf101U           3        30        32          0.114         1.14
 9 Hf102U           3        30        18          0.092         0.92
10 Hf102U           3        30        18          0.092         0.92
# ℹ 395 more rows
# ℹ 12 more variables: `MessVol(ul)` <dbl>, slopeLDH <dbl>, slopeTDH <dbl>,
#   slopeCS <dbl>, ActivityLDH <dbl>, ActivityTDH <dbl>, ActivityCS <dbl>,
#   Date <dttm>, protein <dbl>, ActivityLDHprot <dbl>, ActivityTDHprot <dbl>,
#   ActivityCSprot <dbl>
…
excel_df<- read_excel("data/actividad_enzimas_completo.xlsx", sheet = "hoja2",)

Un caso mas complicado es cuando nuestro datos inician unas filas mas abajo y en un determinado intervalo de columnas. Otro caso común es que los nombres de las columnas tengan símbolos especiales o que estén repetidos

excel_df <- read_excel("data/actividad_enzimas_completo.xlsx", 
                       sheet = "hoja3", skip = 3, na = "-")

New names:
• `pendiente` -> `pendiente...9`
• `pendiente` -> `pendiente...10`

excel_df

# A tibble: 405 × 10
   `Número de muestra` `Número de experimento` Tratamiento Temperatura
   <chr>                                 <dbl>       <dbl>       <dbl>
 1 Hf100U                                    3          24          18
 2 Hf100U                                    3          24          18
 3 Hf100U                                    3          24          32
 4 Hf100U                                    3          24          32
 5 Hf101U                                    3          30          18
 6 Hf101U                                    3          30          18
 7 Hf101U                                    3          30          32
 8 Hf101U                                    3          30          32
 9 Hf102U                                    3          30          18
10 Hf102U                                    3          30          18
# ℹ 395 more rows
# ℹ 6 more variables: `peso húmedo (g)` <dbl>, `buffer (ml)` <dbl>,
#   `volumen de reaccion (ul)` <dbl>, `concentración g/ml` <dbl>,
#   pendiente...9 <dbl>, pendiente...10 <dbl>

En caso de que tengamos otra información que nos este generando conflico podemos especificar el rango de datos de interés

excel_df <- read_excel("data/actividad_enzimas_completo.xlsx", 
                       sheet = "hoja3", range = "D4:M409", na = "-")

New names:
• `pendiente` -> `pendiente...9`
• `pendiente` -> `pendiente...10`

excel_df

# A tibble: 405 × 10
   `Número de muestra` `Número de experimento` Tratamiento Temperatura
   <chr>                                 <dbl>       <dbl>       <dbl>
 1 Hf100U                                    3          24          18
 2 Hf100U                                    3          24          18
 3 Hf100U                                    3          24          32
 4 Hf100U                                    3          24          32
 5 Hf101U                                    3          30          18
 6 Hf101U                                    3          30          18
 7 Hf101U                                    3          30          32
 8 Hf101U                                    3          30          32
 9 Hf102U                                    3          30          18
10 Hf102U                                    3          30          18
# ℹ 395 more rows
# ℹ 6 more variables: `peso húmedo (g)` <dbl>, `buffer (ml)` <dbl>,
#   `volumen de reaccion (ul)` <dbl>, `concentración g/ml` <dbl>,
#   pendiente...9 <dbl>, pendiente...10 <dbl>
…
New names:
• `Número de muestra` -> `Número.de.muestra`
• `Número de experimento` -> `Número.de.experimento`
• `peso húmedo (g)` -> `peso.húmedo..g.`
• `buffer (ml)` -> `buffer..ml.`
• `volumen de reaccion (ul)` -> `volumen.de.reaccion..ul.`
• `concentración g/ml` -> `concentración.g.ml`
• `pendiente` -> `pendiente...9`
• `pendiente` -> `pendiente...10`

excel_df

# A tibble: 405 × 10
   Número.de.muestra Número.de.experimento Tratamiento Temperatura
   <chr>                             <dbl>       <dbl>       <dbl>
 1 Hf100U                                3          24          18
 2 Hf100U                                3          24          18
 3 Hf100U                                3          24          32
 4 Hf100U                                3          24          32
 5 Hf101U                                3          30          18
 6 Hf101U                                3          30          18
 7 Hf101U                                3          30          32
 8 Hf101U                                3          30          32
 9 Hf102U                                3          30          18
10 Hf102U                                3          30          18
# ℹ 395 more rows
# ℹ 6 more variables: peso.húmedo..g. <dbl>, buffer..ml. <dbl>,
#   volumen.de.reaccion..ul. <dbl>, concentración.g.ml <dbl>,
#   pendiente...9 <dbl>, pendiente...10 <dbl>
…
library(janitor)

Warning: package 'janitor' was built under R version 4.3.1

Attaching package: 'janitor'

The following objects are masked from 'package:stats':

    chisq.test, fisher.test

excel_clean <- clean_names(excel_df)
excel_clean

# A tibble: 405 × 10
   numero_de_muestra numero_de_experimento tratamiento temperatura peso_humedo_g
   <chr>                             <dbl>       <dbl>       <dbl>         <dbl>
 1 Hf100U                                3          24          18         0.093
 2 Hf100U                                3          24          18         0.093
 3 Hf100U                                3          24          32         0.093
 4 Hf100U                                3          24          32         0.093
 5 Hf101U                                3          30          18         0.114
 6 Hf101U                                3          30          18         0.114
 7 Hf101U                                3          30          32         0.114
 8 Hf101U                                3          30          32         0.114
 9 Hf102U                                3          30          18         0.092
10 Hf102U                                3          30          18         0.092
# ℹ 395 more rows
# ℹ 5 more variables: buffer_ml <dbl>, volumen_de_reaccion_ul <dbl>,
#   concentracion_g_ml <dbl>, pendiente_9 <dbl>, pendiente_10 <dbl>
…
“screaming_snake”

“parsed”

“lower_upper”

“upper_lower”

por ejemplo:

excel_clean <- clean_names(excel_df, case = "screaming_snake")
excel_clean

# A tibble: 405 × 10
   NUMERO_DE_MUESTRA NUMERO_DE_EXPERIMENTO TRATAMIENTO TEMPERATURA PESO_HUMEDO_G
   <chr>                             <dbl>       <dbl>       <dbl>         <dbl>
 1 Hf100U                                3          24          18         0.093
 2 Hf100U                                3          24          18         0.093
 3 Hf100U                                3          24          32         0.093
 4 Hf100U                                3          24          32         0.093
 5 Hf101U                                3          30          18         0.114
 6 Hf101U                                3          30          18         0.114
 7 Hf101U                                3          30          32         0.114
 8 Hf101U                                3          30          32         0.114
 9 Hf102U                                3          30          18         0.092
10 Hf102U                                3          30          18         0.092
# ℹ 395 more rows
# ℹ 5 more variables: BUFFER_ML <dbl>, VOLUMEN_DE_REACCION_UL <dbl>,
#   CONCENTRACION_G_ML <dbl>, PENDIENTE_9 <dbl>, PENDIENTE_10 <dbl>

Con janitor podemos integrar la función make_clean_name al momento de importar datos ya sea con readxl o con readr. Por ejemplo:

excel_clean <- read_excel("data/actividad_enzimas_completo.xlsx", 
                       sheet = "hoja3", range = "D4:M409", na = "-",
                       .name_repair =  make_clean_names)
excel_clean

# A tibble: 405 × 10
   numero_de_muestra numero_de_experimento tratamiento temperatura peso_humedo_g
   <chr>                             <dbl>       <dbl>       <dbl>         <dbl>
 1 Hf100U                                3          24          18         0.093
 2 Hf100U                                3          24          18         0.093
 3 Hf100U                                3          24          32         0.093
 4 Hf100U                                3          24          32         0.093
 5 Hf101U                                3          30          18         0.114
 6 Hf101U                                3          30          18         0.114
 7 Hf101U                                3          30          32         0.114
 8 Hf101U                                3          30          32         0.114
 9 Hf102U                                3          30          18         0.092
10 Hf102U                                3          30          18         0.092
# ℹ 395 more rows
# ℹ 5 more variables: buffer_ml <dbl>, volumen_de_reaccion_ul <dbl>,
#   concentracion_g_ml <dbl>, pendiente <dbl>, pendiente_2 <dbl>
…
