Manipulación de tablas – Tidyverse
…
Separar y unir filas; separate_rows()

Hay ocasiones en las que una variable tiene varios elementos agrupados en una misma celda. Toma por ejemplo en la tabla starwars que hemos utilizado a lo largo del curso.

starwars <- read_csv("data/starwars.csv")

La columna films contiene las películas en las que ha aparecido cada personaje, separados con una coma. Para poder separar cada uno de estos elementos podemos utilizar la función separate_rows()

starwars %>% 
  separate_rows(films, sep = ",") 

# A tibble: 173 × 14
   name     height  mass hair_color skin_color eye_color birth_year sex   gender
   <chr>     <dbl> <dbl> <chr>      <chr>      <chr>          <dbl> <chr> <chr> 
 1 Luke Sk…    172    77 blond      fair       blue              19 male  mascu…
 2 Luke Sk…    172    77 blond      fair       blue              19 male  mascu…
 3 Luke Sk…    172    77 blond      fair       blue              19 male  mascu…
 4 Luke Sk…    172    77 blond      fair       blue              19 male  mascu…
 5 Luke Sk…    172    77 blond      fair       blue              19 male  mascu…
 6 C-3PO       167    75 <NA>       gold       yellow           112 none  mascu…
 7 C-3PO       167    75 <NA>       gold       yellow           112 none  mascu…
 8 C-3PO       167    75 <NA>       gold       yellow           112 none  mascu…
 9 C-3PO       167    75 <NA>       gold       yellow           112 none  mascu…
10 C-3PO       167    75 <NA>       gold       yellow           112 none  mascu…
# ℹ 163 more rows
# ℹ 5 more variables: homeworld <chr>, species <chr>, films <chr>,
#   vehicles <chr>, starships <chr>
…
Si queremos hacer lo opuesto, es un poco mas complicado e involucra dos pasos:

Agrupar la variable que queremos unir en una sola fila

colapsar con la función summarise()

Por ejemplo, si queremos unir a los personajes de acuerdo a su planeta de origen:

starwars %>% 
  group_by(homeworld) %>% 
  summarise(personaje = paste(name, collapse = ","))

# A tibble: 49 × 2
   homeworld      personaje                                      
   <chr>          <chr>                                          
 1 Alderaan       Leia Organa,Bail Prestor Organa,Raymus Antilles
 2 Aleen Minor    Ratts Tyerell                                  
 3 Bespin         Lobot                                          
 4 Bestine IV     Jek Tono Porkins                               
 5 Cato Neimoidia Nute Gunray                                    
 6 Cerea          Ki-Adi-Mundi                                   
 7 Champala       Mas Amedda                                     
 8 Chandrila      Mon Mothma                                     
 9 Concord Dawn   Jango Fett                                     
10 Corellia       Han Solo,Wedge Antilles                        
# ℹ 39 more rows

Podemos hacer agrupaciones por mas de una variable, por ejemplo por planeta de origen y sexo:

starwars %>% 
  group_by(homeworld, sex) %>% 
  summarise(personaje = paste(name, collapse = ",")) 

`summarise()` has grouped output by 'homeworld'. You can override using the
`.groups` argument.

# A tibble: 61 × 3
# Groups:   homeworld [49]
   homeworld      sex    personaje                          
   <chr>          <chr>  <chr>                              
 1 Alderaan       female Leia Organa                        
 2 Alderaan       male   Bail Prestor Organa,Raymus Antilles
 3 Aleen Minor    male   Ratts Tyerell                      
 4 Bespin         male   Lobot                              
 5 Bestine IV     male   Jek Tono Porkins                   
 6 Cato Neimoidia male   Nute Gunray                        
 7 Cerea          male   Ki-Adi-Mundi                       
 8 Champala       male   Mas Amedda                         
 9 Chandrila      female Mon Mothma                         
10 Concord Dawn   male   Jango Fett                         
# ℹ 51 more rows
…
